<?xml version="1.0" standalone="no"?>
<!DOCTYPE svg PUBLIC "-//W3C//DTD SVG 1.1//EN" "http://www.w3.org/Graphics/SVG/1.1/DTD/svg11.dtd" >
<svg xmlns="http://www.w3.org/2000/svg">
<metadata>
<json>
<![CDATA[
{
	"fontFamily": "Coyo4_file_types",
	"majorVersion": 2,
	"minorVersion": 0,
	"version": "Version 2.0",
	"fontId": "Coyo4_file_types",
	"psName": "Coyo4_file_types",
	"subFamily": "Regular",
	"fullName": "Coyo4_file_types",
	"description": "Font generated by IcoMoon."
}
]]>
</json>
</metadata>
<defs>
<font id="Coyo4_file_types" horiz-adv-x="1024">
<font-face units-per-em="1024" ascent="960" descent="-64" />
<missing-glyph horiz-adv-x="1024" />
<glyph unicode="&#x20;" horiz-adv-x="512" d="" />
<glyph unicode="&#xe900;" glyph-name="excel" data-tags="Ic-Excel" d="M705.707 684.8h135.68v-69.547h-135.68v69.547zM938.667 197.974c0 170.667 0 344.32 0 516.693 0.226 2.411 0.355 5.213 0.355 8.045 0 15.295-3.761 29.712-10.408 42.376l0.24-0.501c-11.702 6.426-25.643 10.206-40.467 10.206-2.878 0-5.722-0.142-8.527-0.421l0.354 0.028c-96.853 0-194.133 0-290.987 0v78.933h-57.6l-446.293-79.36v-694.613c148.053-26.453 296.107-52.053 443.733-79.36h60.16v89.173c100.693 0 200.96 0 301.653 0 15.787 0 40.107 0 42.667 21.76 3.457 21.095 5.432 45.407 5.432 70.181 0 5.929-0.113 11.831-0.337 17.705l0.026-0.846zM370.773 271.36c-15.814 33.158-32.156 74.403-46.004 116.775l-2.209 7.812c-13.227-40.107-32-78.080-47.36-117.76l-61.867 2.133c24.747 49.92 49.067 100.267 74.667 149.76-21.76 51.2-45.653 101.12-68.267 151.893l64 3.84c14.507-38.827 30.293-76.8 42.667-116.907 12.8 42.667 32 81.92 48.213 122.88l63.573 5.547q-38.4-81.493-78.080-162.56l80.64-166.4zM909.227 119.040h-320v59.733h77.653v69.12h-77.653v39.68h77.653v69.547h-77.653v39.68h77.653v69.547h-77.653v39.68h77.653v69.547h-77.653v39.68h77.653v67.413h-77.653v61.44h320zM705.707 575.147h135.68v-69.547h-135.68zM705.707 465.92h135.68v-69.12h-135.68zM705.707 356.694h135.68v-69.12h-135.68zM705.707 247.894h135.68v-69.547h-135.68z" />
<glyph unicode="&#xe901;" glyph-name="image" data-tags="ic-Powerpoint Kopie 2" d="M853.333 597.334v-512c-0.102-23.523-9.706-44.783-25.169-60.156l-0.004-0.004c-8.312-7.317-17.887-13.474-28.306-18.068l-0.707-0.278c-9.062-4.31-19.692-6.827-30.91-6.827-0.083 0-0.166 0-0.25 0h-515.827c-10.976 0.034-21.539 1.748-31.463 4.897l0.743-0.204c-10.852 3.764-19.708 10.963-25.481 20.274l-0.119 0.206c-7.317 8.312-13.474 17.887-18.068 28.306l-0.278 0.707c-4.31 9.062-6.827 19.692-6.827 30.91 0 0.083 0 0.166 0 0.25v-0.013 686.507c0.089 11.375 2.273 22.214 6.185 32.185l-0.211-0.612c4.175 10.914 9.348 20.347 15.605 28.94l-0.245-0.353c7.896 8.092 17.83 14.161 28.973 17.378l0.467 0.115c10.069 2.443 21.629 3.844 33.517 3.844 0.367 0 0.733-0.001 1.099-0.004h341.277zM333.227 195.84l362.667 4.267-119.893 158.72-89.173-120.32-64 77.653zM789.333 554.667l-234.667 234.667v-234.667z" />
<glyph unicode="&#xe902;" glyph-name="pdf" data-tags="ic-Powerpoint Kopie 3" d="M853.333 597.334v-512c-0.024-11.259-2.376-21.961-6.6-31.662l0.2 0.515c-5.031-10.969-11.32-20.399-18.853-28.675l0.080 0.089c-7.856-8.187-17.386-14.703-28.045-19.007l-0.541-0.193c-9.328-3.881-20.153-6.215-31.5-6.399l-0.073-0.001h-512c-11.233 0.134-21.919 2.314-31.755 6.184l0.608-0.211c-11.151 4.632-20.657 11.127-28.574 19.187l-0.012 0.013c-5.674 8.235-10.696 17.656-14.605 27.635l-0.328 0.951c-5.49 9.062-9.277 19.758-10.631 31.199l-0.036 0.374v686.933c0 0.056 0 0.121 0 0.187 0 11.193 2.355 21.835 6.597 31.46l-0.197-0.5c5.031 10.969 11.32 20.399 18.853 28.675l-0.080-0.089c5.89 8.6 14.652 14.861 24.879 17.431l0.294 0.063c10.074 2.445 21.639 3.847 33.532 3.847 0.512 0 1.023-0.003 1.533-0.008l-0.078 0.001h341.333zM665.173 193.28c9.387 2.133 14.507 10.667 14.507 25.6 0.204 1.243 0.32 2.676 0.32 4.135 0 11.594-7.34 21.473-17.627 25.245l-0.187 0.060c-12.514 5.917-27.185 9.376-42.663 9.387h-0.004c-11.532-0.096-22.78-0.868-33.828-2.279l1.401 0.146c-11.093 0-18.773-2.133-23.467-2.133-12.256 12.974-23.999 26.882-34.944 41.424l-0.896 1.243c-4.528 5.705-8.16 12.368-10.538 19.601l-0.129 0.452c4.195 7.765 7.451 16.771 9.29 26.282l0.096 0.598c3.609 13.874 6.474 30.445 8.016 47.398l0.091 1.242c0.008 0.447 0.012 0.974 0.012 1.502 0 8.883-1.251 17.473-3.586 25.605l0.161-0.654c-1.649 6.351-5.101 11.742-9.772 15.752l-0.041 0.034c-5.549 5.409-12.992 8.899-21.243 9.382l-0.090 0.004c-7.329-0.329-13.975-3.010-19.261-7.301l0.061 0.048c-6.827-4.693-10.24-16.64-10.24-34.987 0.77-26.793 7.14-51.917 17.972-74.494l-0.479 1.107c-9.989-30.767-20.393-56.318-32.359-80.97l1.639 3.743c-5.792-14.010-12.809-26.1-21.196-37.088l0.289 0.395c-31.042-8.151-57.89-23.101-79.933-43.225l0.147 0.132c-6.336-7.296-11.297-15.977-14.362-25.507l-0.144-0.519c-0.023-0.396-0.036-0.86-0.036-1.327 0-7.468 3.308-14.163 8.538-18.7l0.031-0.026c5.568-4.004 12.523-6.403 20.039-6.403 0.155 0 0.31 0.001 0.464 0.003h-0.023c27.202 1.516 50.481 16.973 62.947 39.291l0.2 0.389c11 14.591 21.347 31.077 30.251 48.426l0.896 1.921c14.511 5.73 32.071 11.022 50.144 14.936l2.336 0.424c10.531 2.73 23.043 4.845 35.851 5.917l0.842 0.057c13.445-12.866 29.485-23.146 47.241-29.965l0.973-0.328c10.798-4.466 23.307-7.377 36.4-8.094l0.294-0.013c8.558 0.145 16.766 1.381 24.572 3.576l-0.679-0.163zM375.893 157.44c13.933 13.123 30.154 24.015 47.968 31.987l1.098 0.439c-4.572-6.081-9.223-13.044-13.492-20.26l-0.588-1.073c-5.437-8.5-12.265-15.6-20.24-21.174l-0.24-0.159c-3.596-3.489-7.497-6.712-11.642-9.612l-0.305-0.202c-2.657-1.802-5.848-3.021-9.292-3.405l-0.094-0.009-3.84 4.267c0.81 7.933 4.067 14.984 8.992 20.516l-0.032-0.036zM484.693 232.107c3.413 8.107 7.68 18.347 13.227 30.72s8.96 22.187 11.947 29.013l18.347-25.173c5.534-6.557 10.373-13.99 14.233-21.984l0.274-0.63c-13.23-1.637-24.678-3.732-35.897-6.415l2.191 0.442c-9.968-1.145-18.809-2.794-27.427-4.997l1.401 0.304zM503.893 395.52c-2.56-14.080-4.693-27.307-7.253-39.68-4.713 10.879-7.907 23.492-8.935 36.713l-0.025 0.407c-0.489 2.533-0.769 5.446-0.769 8.424 0 8.005 2.022 15.538 5.584 22.115l-0.122-0.246s0 3.413 4.267 4.267 3.84 0 3.84 0v-3.413c2.56-3.84 3.84-13.227 1.707-27.307zM788.053 554.667l-233.387 235.093v-235.093zM617.387 236.374c1.219 0.124 2.633 0.194 4.065 0.194 7.251 0 14.079-1.809 20.058-4.999l-0.23 0.112c2.758-1.972 4.657-4.994 5.113-8.471l0.007-0.063c0.147-1.089 0.231-2.348 0.231-3.627s-0.084-2.538-0.247-3.772l0.016 0.145c0-3.413-4.267-4.693-10.667-4.693-8.906 0.45-17.203 2.605-24.721 6.143l0.401-0.17c-12.189 4.781-22.441 9.796-32.229 15.518l1.083-0.585c4.648 2.038 10.055 3.28 15.737 3.412l0.050 0.001z" />
<glyph unicode="&#xe903;" glyph-name="video" data-tags="ic-Powerpoint Kopie 4" d="M597.333 853.334l256-256v-512c0-0.070 0-0.154 0-0.237 0-11.218-2.517-21.848-7.017-31.356l0.19 0.446c-4.874-10.969-11.028-20.404-18.439-28.691l0.092 0.105c-7.991-8.198-17.661-14.717-28.46-19.006l-0.554-0.194c-9.197-3.83-19.867-6.159-31.051-6.398l-0.095-0.002-512 3.84c-11.309 0.183-21.99 2.678-31.653 7.031l0.506-0.204c-11.126 4.873-20.701 11.030-29.136 18.452l0.123-0.106c-7.915 6.563-14.159 14.86-18.188 24.328l-0.158 0.419c-4.312 9.064-6.83 19.695-6.83 30.915 0 0.231 0.001 0.462 0.003 0.693v-0.035 686.933c-0.001 0.154-0.002 0.336-0.002 0.518 0 11.122 2.518 21.657 7.016 31.064l-0.187-0.435c4.874 10.969 11.028 20.404 18.439 28.691l-0.092-0.105c7.806 8.004 17.579 14.053 28.539 17.37l0.474 0.123c9.342 2.439 20.066 3.84 31.117 3.84 0.010 0 0.021 0 0.031 0h-0.002zM646.827 154.454c32.881 31.174 53.34 75.169 53.34 123.942 0 0.527-0.002 1.053-0.007 1.579l0.001-0.080c0.001 0.25 0.002 0.545 0.002 0.84 0 49.385-21.349 93.784-55.322 124.47l-0.146 0.13c-32.815 32.441-77.949 52.48-127.763 52.48-0.083 0-0.167 0-0.25 0h0.013c-0.258 0.001-0.564 0.002-0.869 0.002-48.81 0-92.928-20.088-124.537-52.448l-0.033-0.034c-33.132-31.204-53.764-75.364-53.764-124.341 0-0.386 0.001-0.772 0.004-1.158v0.059c-0.011-0.735-0.018-1.602-0.018-2.471 0-48.074 19.583-91.574 51.207-122.958l0.011-0.011c31.080-32.163 74.602-52.133 122.788-52.133 1.833 0 3.659 0.029 5.478 0.086l-0.266-0.007c1.032-0.021 2.249-0.033 3.469-0.033 49.397 0 94.147 19.891 126.679 52.101l-0.015-0.015zM624.64 386.987c26.395-26.787 42.695-63.586 42.695-104.191 0-1.020-0.010-2.038-0.031-3.054l0.002 0.152c0-0.129 0.001-0.281 0.001-0.434 0-41.873-17.689-79.614-46.001-106.159l-0.079-0.074c-26.628-27.756-63.97-45.055-105.355-45.227h-0.032c-0.912-0.021-1.987-0.033-3.065-0.033-41.51 0-78.923 17.537-105.235 45.607l-0.073 0.079c-27.647 26.86-44.802 64.39-44.802 105.928 0 0.26 0.001 0.519 0.002 0.779v-0.040c-0.009 0.61-0.015 1.329-0.015 2.050 0 41.852 17.881 79.528 46.42 105.804l0.101 0.092c27.291 26.401 64.523 42.671 105.556 42.671 0.391 0 0.781-0.001 1.171-0.004h-0.060c1.143 0.032 2.489 0.050 3.838 0.050 41.085 0 78.239-16.832 104.942-43.977l0.019-0.020zM581.973 276.054c2.56 3.413 2.56 5.973 0 8.107l-89.6 63.573c-1.294 2.106-3.586 3.49-6.201 3.49-0.371 0-0.736-0.028-1.093-0.082l0.040 0.005c-2.987 0-4.693-2.987-4.693-7.253v-128c0-4.267 0-6.827 4.693-7.253 0.451-0.114 0.969-0.179 1.502-0.179 2.513 0 4.687 1.448 5.734 3.555l0.017 0.037zM789.333 554.667l-234.667 235.093v-235.093z" />
<glyph unicode="&#xe904;" glyph-name="text" data-tags="ic-Powerpoint Kopie 5" d="M853.333 597.334v-512c-0.094-11.228-2.278-21.92-6.182-31.741l0.208 0.594c-9.235-21.654-26.132-38.552-47.205-47.566l-0.581-0.221c-9.328-3.881-20.153-6.215-31.5-6.399l-0.073-0.001h-512c-11.228 0.094-21.92 2.278-31.741 6.182l0.594-0.208c-11.201 4.497-20.73 11.013-28.56 19.172l-0.026 0.028c-7.481 8.111-13.656 17.569-18.102 27.945l-0.245 0.642c-4.542 9.229-7.215 20.085-7.253 31.56v686.946c-0.001 0.154-0.002 0.336-0.002 0.518 0 11.122 2.518 21.657 7.016 31.064l-0.187-0.435c4.691 11.018 10.866 20.476 18.409 28.655l-0.062-0.068c7.806 8.004 17.579 14.053 28.539 17.37l0.474 0.123c10.069 2.443 21.629 3.844 33.517 3.844 0.367 0 0.733-0.001 1.099-0.004h341.277zM689.493 370.774c4.085 3.443 6.793 8.407 7.249 14.007l0.005 0.073c0.032 0.417 0.051 0.904 0.051 1.395 0 5.498-2.311 10.457-6.015 13.957l-0.009 0.009c-3.704 3.694-8.816 5.979-14.462 5.979-0.166 0-0.331-0.002-0.496-0.006h-318.268c-0.064 0.001-0.139 0.001-0.214 0.001-5.862 0-11.192-2.273-15.159-5.986l0.012 0.011c-3.701-3.769-5.986-8.94-5.986-14.644 0-0.252 0.004-0.502 0.013-0.752l-0.001 0.036c-0.012-0.26-0.019-0.565-0.019-0.872 0-11.311 9.169-20.48 20.48-20.48 0.307 0 0.612 0.007 0.915 0.020l-0.043-0.002h318.293c5.683 0.909 10.5 4.045 13.61 8.468l0.043 0.065zM689.493 264.96c4.145 3.226 6.886 8.087 7.25 13.597l0.003 0.056c0.032 0.417 0.051 0.904 0.051 1.395 0 5.498-2.311 10.457-6.015 13.957l-0.009 0.009c-3.704 3.694-8.816 5.979-14.462 5.979-0.166 0-0.331-0.002-0.496-0.006h-318.268c-0.064 0.001-0.139 0.001-0.214 0.001-5.862 0-11.192-2.273-15.159-5.986l0.012 0.011c-3.701-3.769-5.986-8.94-5.986-14.644 0-0.252 0.004-0.502 0.013-0.752l-0.001 0.036c-0.003-0.132-0.005-0.288-0.005-0.445 0-11.311 9.169-20.48 20.48-20.48 0.302 0 0.602 0.007 0.901 0.019l-0.043-0.001h318.293c5.757 0.686 10.65 3.889 13.609 8.46l0.045 0.073zM689.493 158.72c4.145 3.226 6.886 8.087 7.25 13.597l0.003 0.056c0.032 0.417 0.051 0.904 0.051 1.395 0 5.498-2.311 10.457-6.015 13.957l-0.009 0.009c-3.507 3.698-8.456 5.999-13.942 5.999-0.349 0-0.695-0.009-1.040-0.028l0.048 0.002h-318.293c-0.264 0.012-0.573 0.019-0.884 0.019-5.652 0-10.77-2.29-14.476-5.993v0c-3.701-3.769-5.986-8.94-5.986-14.644 0-0.252 0.004-0.502 0.013-0.752l-0.001 0.036c-0.003-0.132-0.005-0.288-0.005-0.445 0-11.311 9.169-20.48 20.48-20.48 0.302 0 0.602 0.007 0.901 0.019l-0.043-0.001h318.293c5.757 0.686 10.65 3.889 13.609 8.46l0.045 0.073zM789.76 554.667l-235.093 235.093v-235.093z" />
<glyph unicode="&#xe905;" glyph-name="powerpoint" data-tags="Ic-Powerpoint" d="M657.067 661.334c69.239-5.185 123.984-60.668 127.983-129.762l0.017-0.371h-128v130.133zM938.667 720.214c0.187 1.342 0.294 2.893 0.294 4.469 0 18.851-15.282 34.133-34.133 34.133-1.306 0-2.595-0.073-3.863-0.216l0.156 0.014c-103.68 0-207.36 0-311.040 0v90.027h-55.893c-150.187-26.027-299.093-53.333-448.853-80.64v-693.333c148.053-26.88 296.107-52.053 443.733-79.36h60.16v98.987h290.987c2.825-0.349 6.095-0.548 9.411-0.548 14.569 0 28.24 3.843 40.056 10.571l-0.4-0.21c6.39 13.875 10.117 30.106 10.117 47.208 0 4.563-0.265 9.065-0.781 13.49l0.051-0.538c0 185.173 0 370.773 0 555.947zM369.92 389.12c-15.771-6.662-34.108-10.533-53.35-10.533-6.312 0-12.527 0.417-18.618 1.224l0.715-0.077c0-38.827 0-77.653 0-116.48l-57.6 5.12c0 105.813 0 213.333 0 317.867 52.48-2.56 116.053 21.333 160-18.773 15.876-20.495 25.449-46.568 25.449-74.878 0-43.249-22.343-81.28-56.117-103.178l-0.479-0.291zM909.227 124.16h-320v79.36h232.533v39.68h-232.533v49.493h232.533v39.68h-232.533v58.453c13.675-5.174 29.484-8.17 45.994-8.17 26.107 0 50.465 7.491 71.040 20.442l-0.554-0.325c35.345 24.18 58.543 63.873 59.73 109.048l0.004 0.179h-125.44c0 42.667 0 85.333 0 128l-47.787-9.813v99.413h320zM298.667 532.48c19.2 0 42.667 4.693 55.893-13.653 4.739-9.533 7.512-20.763 7.512-32.64s-2.773-23.107-7.707-33.076l0.195 0.436c-11.093-20.48-36.267-18.347-55.467-20.48 0 32.853 0 66.133 0 99.413z" />
<glyph unicode="&#xe906;" glyph-name="word" data-tags="Ic-Word" d="M938.667 735.574c0.152 1.212 0.239 2.614 0.239 4.036 0 18.851-15.282 34.133-34.133 34.133-1.287 0-2.557-0.071-3.807-0.21l0.154 0.014c-103.68 0-207.36 0-311.040 0v79.787h-58.88l-445.867-79.787v-694.187c148.053-26.453 295.68-51.627 443.307-79.36h60.587v79.36c97.28 0 194.133 0 290.987 0 2.4-0.233 5.189-0.366 8.009-0.366 15.020 0 29.16 3.768 41.527 10.409l-0.469-0.23c6.361 13.875 10.069 30.1 10.069 47.192 0 4.418-0.248 8.779-0.73 13.068l0.048-0.526c0 195.413 0 391.253 0 586.667zM408.747 291.84c-16.213-8.533-40.533 0-59.733 0-12.8 65.707-27.733 130.987-39.253 196.693-11.52-64-26.027-128-39.253-191.147l-57.173 1.28c-16.213 87.467-34.987 174.080-49.92 261.547l49.92 3.413c10.24-63.147 21.333-128 30.293-189.44 13.653 64.853 27.733 128 42.667 194.56l55.040 2.987c12.8-66.987 26.027-133.973 40.107-200.533 11.093 68.693 23.040 137.387 34.56 206.080l58.453 2.987c-22.613-96-41.813-192.853-65.707-288.427zM909.227 109.227h-320v79.36h252.16v39.68h-252.16v49.493h252.16v39.68h-252.16v49.493h252.16v39.68h-252.16v49.92h252.16v39.68h-252.16v49.493h252.16v39.68h-252.16v49.493h252.16v39.68h-252.16v69.547h320z" />
<glyph unicode="&#xe907;" glyph-name="zip" data-tags="ic-Powerpoint Kopie 7" d="M592.213 853.334l261.12-253.44v-514.56c-0.128-11.38-2.309-22.213-6.187-32.199l0.214 0.626c-9.633-20.895-26.038-37.3-46.349-46.691l-0.584-0.242c-9.563-4.072-20.669-6.555-32.322-6.825l-0.105-0.002h-217.6v25.173h-25.173v25.173h25.173v17.067h-25.173v25.173h25.173v25.173h-25.173v24.747h25.173v28.16h-25.173v25.173h25.173v25.173h-25.173v20.907h25.173v25.173h-25.173v25.173h25.173v26.453h-25.173v22.613c13.363 2.14 24.741 9.322 32.333 19.495l0.094 0.132c8.51 10.665 13.655 24.341 13.655 39.218 0 0.162-0.001 0.325-0.002 0.487v-0.025c0.038 0.771 0.060 1.675 0.060 2.584 0 15.75-6.565 29.967-17.107 40.064l-0.020 0.019c-11.197 10.289-26.195 16.595-42.667 16.595s-31.47-6.306-42.712-16.636l0.046 0.041c-10.562-10.116-17.127-24.333-17.127-40.083 0-0.909 0.022-1.813 0.065-2.711l-0.005 0.127c-0.009-0.371-0.014-0.808-0.014-1.246 0-13.937 5.18-26.664 13.72-36.361l-0.052 0.061c8.929-9.883 20.298-17.398 33.164-21.606l0.543-0.154v-46.507h-25.6v-26.027h26.453v-25.173h-26.453v-25.173h26.453v-17.067h-26.453v-25.173h26.453v-25.173h-26.453v-23.040h26.453v-26.453h-26.453v-25.173h26.453v-24.747h-26.453v-21.333h26.453v-25.173h-244.053c-11.228 0.094-21.92 2.278-31.741 6.182l0.594-0.208c-11.030 4.561-20.41 11.066-28.129 19.167l-0.031 0.033c-7.454 8.188-13.743 17.617-18.491 27.904l-0.283 0.683c-4.131 8.609-6.753 18.66-7.247 29.268l-0.006 0.172v679.68c-0.011 0.478-0.017 1.041-0.017 1.606 0 11.147 2.362 21.742 6.612 31.313l-0.195-0.492c5.282 10.268 11.533 19.107 18.839 26.951l-0.066-0.071c7.724 7.348 16.577 13.612 26.251 18.486l0.629 0.287c9.577 4.58 20.816 7.256 32.681 7.256 0.211 0 0.421-0.001 0.632-0.003h-0.032zM535.040 375.040c-5.473-5.116-12.847-8.257-20.955-8.257-2.096 0-4.143 0.21-6.122 0.61l0.197-0.033c-0.008 0-0.017 0-0.027 0-9.159 0-17.525 3.395-23.908 8.995l0.041-0.035c-6.574 6.028-10.68 14.655-10.68 24.242 0 0.327 0.005 0.654 0.014 0.979l-0.001-0.048c0.366 8.772 3.869 16.661 9.408 22.636l-0.021-0.023c5.886 6.575 14.4 10.693 23.875 10.693 0.457 0 0.911-0.010 1.363-0.029l-0.065 0.002c0.212 0.004 0.462 0.006 0.713 0.006 9.904 0 19.020-3.375 26.261-9.037l-0.094 0.071c6.811-5.111 11.171-13.169 11.171-22.245 0-0.73-0.028-1.454-0.084-2.17l0.006 0.095c0.015-0.372 0.023-0.809 0.023-1.248 0-9.97-4.274-18.941-11.090-25.182l-0.026-0.023zM782.080 557.654l-231.68 232.107v-232.107z" />
<glyph unicode="&#xe908;" glyph-name="file" data-tags="ic-Powerpoint Kopie 8" d="M597.333 853.334l256-256v-512c-0.094-11.228-2.278-21.92-6.182-31.741l0.208 0.594c-9.235-21.654-26.132-38.552-47.205-47.566l-0.581-0.221c-9.328-3.881-20.153-6.215-31.5-6.399l-0.073-0.001h-512c-11.228 0.094-21.92 2.278-31.741 6.182l0.594-0.208c-11.201 4.497-20.73 11.013-28.56 19.172l-0.026 0.028c-7.454 8.188-13.743 17.617-18.491 27.904l-0.283 0.683c-4.217 9.285-6.719 20.123-6.826 31.535v0.039l4.267 682.667c0 0.070 0 0.154 0 0.237 0 11.218 2.517 21.848 7.017 31.356l-0.19-0.446c4.874 10.969 11.028 20.404 18.439 28.691l-0.092-0.105c7.043 7.867 15.741 14.1 25.56 18.175l0.466 0.172c9.726 4.581 21.126 7.255 33.15 7.255 0.196 0 0.391-0.001 0.587-0.002h-0.030zM554.667 554.667h233.387l-231.253 235.093z" />
<glyph unicode="&#xe909;" glyph-name="office365" data-tags="Ic-Office365" d="M128 165.12v517.547l497.493 170.667 270.507-79.787v-698.453l-270.507-75.093-497.493 165.12 497.493-55.467v604.16l-324.267-69.973v-409.173z" />
</font></defs></svg>